{
	"variables": [],
	"info": {
		"name": "Mini Aspire",
		"_postman_id": "b832f30d-97f4-babf-c880-f0180b501419",
		"description": "",
		"schema": "https://schema.getpostman.com/json/collection/v2.0.0/collection.json"
	},
	"item": [
		{
			"name": "Step 1: api/tokens/create",
			"request": {
				"url": "http://127.0.0.1:8000/api/tokens/create",
				"method": "POST",
				"header": [
					{
						"key": "Accept",
						"value": "application/json",
						"description": ""
					}
				],
				"body": {
					"mode": "formdata",
					"formdata": [
						{
							"key": "email",
							"value": "aspire@gmail.com",
							"description": "",
							"type": "text"
						},
						{
							"key": "password",
							"value": "password",
							"description": "",
							"type": "text"
						}
					]
				},
				"description": ""
			},
			"response": []
		},
		{
			"name": "Step 2 : Request loan",
			"request": {
				"url": "http://127.0.0.1:8000/api/user/loan",
				"method": "POST",
				"header": [
					{
						"key": "Accept",
						"value": "application/json",
						"description": ""
					},
					{
						"key": "Authorization",
						"value": "Bearer 1|8SQBXB5KkChkedVxjhn6aE3QQtMw5HjA0yQaL6lu",
						"description": ""
					}
				],
				"body": {
					"mode": "formdata",
					"formdata": [
						{
							"key": "amount",
							"value": "5000",
							"description": "",
							"type": "text"
						},
						{
							"key": "term",
							"value": "2",
							"description": "",
							"type": "text"
						},
						{
							"key": "term_limit",
							"value": "2",
							"description": "",
							"type": "text"
						}
					]
				},
				"description": ""
			},
			"response": []
		},
		{
			"name": "Step 3: Get User loan",
			"request": {
				"url": "http://127.0.0.1:8000/api/user/loan",
				"method": "GET",
				"header": [
					{
						"key": "Authorization",
						"value": "Bearer 1|8SQBXB5KkChkedVxjhn6aE3QQtMw5HjA0yQaL6lu",
						"description": ""
					}
				],
				"body": {},
				"description": ""
			},
			"response": []
		},
		{
			"name": "Step 4: Get Loan Weekly Schedules",
			"request": {
				"url": "http://127.0.0.1:8000/api/user/loan/schedule/7",
				"method": "GET",
				"header": [
					{
						"key": "Authorization",
						"value": "Bearer 1|8SQBXB5KkChkedVxjhn6aE3QQtMw5HjA0yQaL6lu",
						"description": ""
					},
					{
						"key": "Accept",
						"value": "application/json",
						"description": ""
					}
				],
				"body": {},
				"description": ""
			},
			"response": []
		},
		{
			"name": "Step 5: Pay weekly schedule",
			"request": {
				"url": "http://127.0.0.1:8000/api/user/loan/schedule/7/pay/5",
				"method": "POST",
				"header": [
					{
						"key": "Accept",
						"value": "application/json",
						"description": ""
					},
					{
						"key": "Authorization",
						"value": "Bearer 1|8SQBXB5KkChkedVxjhn6aE3QQtMw5HjA0yQaL6lu",
						"description": ""
					}
				],
				"body": {},
				"description": ""
			},
			"response": []
		}
	]
}